<?xml version="1.0" encoding="UTF-8"?>
<svg width="14px" height="14px" viewBox="0 0 14 14" version="1.1" xmlns="http://www.w3.org/2000/svg" xmlns:xlink="http://www.w3.org/1999/xlink">
    <!-- Generator: Sketch 60.1 (88133) - https://sketch.com -->
    <title>clock</title>
    <desc>Created with Sketch.</desc>
    <g id="Page-1" stroke="none" stroke-width="1" fill="none" fill-rule="evenodd">
        <g id="Blog-item-view" transform="translate(-552.000000, -502.000000)" fill="#051728" fill-rule="nonzero">
            <g id="1" transform="translate(348.000000, 139.000000)">
                <g id="Text" transform="translate(2.000000, 355.000000)">
                    <g id="clock" transform="translate(202.000000, 8.000000)">
                        <path d="M7,0 C3.14026125,0 0,3.14026125 0,7 C0,10.8597387 3.14026125,14 7,14 C10.8597387,14 14,10.8597387 14,7 C14,3.14026125 10.8597387,0 7,0 Z M8.23773125,9.475025 L6.125,7.36229375 L6.125,3.49999125 L7.875,3.49999125 L7.875,6.63768875 L9.47503375,8.2377225 L8.23773125,9.475025 Z" id="Shape"></path>
                    </g>
                </g>
            </g>
        </g>
    </g>
</svg>